{"current_page":604,"data":[{"gpt_updated_at":1699868268,"num_conversations":600,"official_website_link":"https://prismplane.jp","g_id":"g-d9r7dOaSA","name":"クリエイターサバイバルツール / Brand Buddy","describe":"あなた自身やあなたの事業を分析してブランディングとマーケティング施策を提示します。","author":"YUGI ISANA","img_url":"https://files.oaiusercontent.com/file-Wn6Qg2hyP4Xyvgf5kcBOwbmU?se=2123-10-16T13%3A16%3A34Z\u0026sp=r\u0026sv=2021-08-06\u0026sr=b\u0026rscc=max-age%3D31536000%2C%20immutable\u0026rscd=attachment%3B%20filename%3D1.jpg\u0026sig=/cvwNpmnepZrfupqsUuU/kUG6oW703hYkPo/zabY%2B90%3D","link":"https://chat.openai.com/g/g-d9r7dOaSA","created_at":1700725302,"user_collected":"0","ai_content":{"synopsis":"Brand Buddy on ChatGPT is a creator survival tool that provides analysis of yourself or your business and offers branding and marketing strategies.","categories":["Marketing","Branding","Analytics"]}},{"gpt_updated_at":1705215282,"num_conversations":10,"g_id":"g-4hbPanjJe","name":"Web Dash","describe":"Turns titles into URL-friendly formats.","author":"Nolan Denning","img_url":"https://files.oaiusercontent.com/file-pD4jkkQRQkvupmVFzXBtdeMS?se=2123-10-20T02%3A24%3A34Z\u0026sp=r\u0026sv=2021-08-06\u0026sr=b\u0026rscc=max-age%3D31536000%2C%20immutable\u0026rscd=attachment%3B%20filename%3DDALL%25C2%25B7E%25202023-11-12%252021.08.28%2520-%2520Create%2520a%2520new%25203D%2520logo%2520design%2520for%2520_Web%2520Dash_%252C%2520using%2520a%2520black%2520background%252C%2520neon%2520orange%252C%2520deep%2520blacks%252C%2520and%2520a%2520hint%2520of%2520teal%2520blue.%2520The%2520logo%2520should%2520have%2520a%2520reflec.png\u0026sig=dHEboMerf70LEnCD42cwQkUTBbxShxc3KzthAf1HC2g%3D","link":"https://chat.openai.com/g/g-4hbPanjJe","created_at":1700725302,"user_collected":"0","ai_content":{"synopsis":"Web Dash on ChatGPT is a tool that helps convert titles into URL-friendly formats.","categories":["URL Formatting"]}},{"gpt_updated_at":1703334519,"num_conversations":30,"g_id":"g-I7Fov8WME","name":"ワークショップの問いの作り方指南","describe":"ワークショップの「問い」の解像度を上げるのを手伝ってくれます","author":"株式会社イー・エージェンシー","img_url":"https://files.oaiusercontent.com/file-NSrdm5xdYv1bZ8oU4YLsQZ3B?se=2123-10-20T11%3A11%3A19Z\u0026sp=r\u0026sv=2021-08-06\u0026sr=b\u0026rscc=max-age%3D31536000%2C%20immutable\u0026rscd=attachment%3B%20filename%3De7983c6b-79ef-4fa9-a18c-1cea7d429622.png\u0026sig=gVzphIOigPCDp8GakAkuCzuGAvs0bfF2WVpbj8pCtEo%3D","link":"https://chat.openai.com/g/g-I7Fov8WME","created_at":1700725302,"user_collected":"0","ai_content":{"synopsis":"A guide on how to create workshop questions on ChatGPT","categories":["Education"]}},{"gpt_updated_at":1705215257,"num_conversations":30,"g_id":"g-EXYPON9f2","name":"Haterade","describe":"Crafting firm, informed replies to online negativity","author":"Nolan Denning","img_url":"https://files.oaiusercontent.com/file-lMQg0cWaRfPgSVSftkXyQ7m9?se=2123-10-21T01%3A59%3A07Z\u0026sp=r\u0026sv=2021-08-06\u0026sr=b\u0026rscc=max-age%3D31536000%2C%20immutable\u0026rscd=attachment%3B%20filename%3DUntitled%2520design_20231111_150449_0000.png\u0026sig=tSXmj5uYt3DPxn1s%2BTFl40DxluneZrrtqhgrWJco/qY%3D","link":"https://chat.openai.com/g/g-EXYPON9f2","created_at":1700725302,"user_collected":"0","ai_content":{"synopsis":"Haterade on ChatGPT is a website that helps users craft firm and informed replies to online negativity.","categories":["Communication"]}},{"gpt_updated_at":1699984372,"num_conversations":60,"g_id":"g-ijn7wu65c","name":"Culinary Canines","describe":"Creates dish-inspired dog characters and responds in Japanese","img_url":"https://files.oaiusercontent.com/file-QT6RxxQLYV5jjYZnlv6VLgoL?se=2123-10-21T17%3A48%3A06Z\u0026sp=r\u0026sv=2021-08-06\u0026sr=b\u0026rscc=max-age%3D31536000%2C%20immutable\u0026rscd=attachment%3B%20filename%3Da9c1b908-b136-4b4b-a48d-c743889f77f7.png\u0026sig=SZOC9%2B56XMICpxUKCHPUoNVtvtW0bLZJSit6hIfQnyE%3D","link":"https://chat.openai.com/g/g-ijn7wu65c","created_at":1700725302,"user_collected":"0","ai_content":{"synopsis":"Culinary Canines on ChatGPT is a fun and interactive website that allows users to create dish-inspired dog characters and have conversations with them in Japanese.","categories":["Entertainment"]}},{"gpt_updated_at":1700374688,"num_conversations":20,"g_id":"g-TA2bS5Ovs","name":"Spark","describe":"A creative brainstorming assistant for media, story building \u0026 brand identity.","author":"Nolan Denning","img_url":"https://files.oaiusercontent.com/file-gZyXPdisBVUP1XDFI7YaZ0E7?se=2123-10-18T08%3A53%3A03Z\u0026sp=r\u0026sv=2021-08-06\u0026sr=b\u0026rscc=max-age%3D31536000%2C%20immutable\u0026rscd=attachment%3B%20filename%3D6f6691e2-0faa-45de-8204-cc70bb8de987.webp\u0026sig=adiDmAliFIEl%2BfcSUru8mmcy47knOCOVdiV7PdyQzdk%3D","link":"https://chat.openai.com/g/g-TA2bS5Ovs","created_at":1700725302,"user_collected":"0","ai_content":{"synopsis":"Spark on ChatGPT is a creative brainstorming assistant that helps with media, story building, and brand identity.","categories":["Artificial Intelligence","Creative Tools"]}},{"gpt_updated_at":1699604060,"num_conversations":10,"g_id":"g-PvIPmTs79","name":"RespectablyAI","describe":"A GPT enhancing respectful \u0026 formal communication.","author":"EVANGELOS MEKLIS","img_url":"https://files.oaiusercontent.com/file-I0ApFStlnDzZ9FSmAaJePCO6?se=2123-10-17T08%3A14%3A17Z\u0026sp=r\u0026sv=2021-08-06\u0026sr=b\u0026rscc=max-age%3D31536000%2C%20immutable\u0026rscd=attachment%3B%20filename%3Dhero.png\u0026sig=2Ptt2J1YYBPUJfjPWjKrGtm2R4H502wzmfnaosUICsw%3D","link":"https://chat.openai.com/g/g-PvIPmTs79","created_at":1700725302,"user_collected":"0","ai_content":{"synopsis":"RespectablyAI is a platform that utilizes the power of GPT to enhance respectful and formal communication.","categories":["Language and Communication"]}},{"g_id":"g-EXlluHV9H","name":"ブレストGPT","describe":"ブレストしたいテーマを送ってください。AIブレインが議論を行い要約と結論を提示します。","author":"istibx.com","img_url":"https://files.oaiusercontent.com/file-xhTAhe4XL99VX2bAn3g3IpsM?se=2123-10-18T01%3A27%3A27Z\u0026sp=r\u0026sv=2021-08-06\u0026sr=b\u0026rscc=max-age%3D31536000%2C%20immutable\u0026rscd=attachment%3B%20filename%3D69d78de5-3440-4797-a3e0-33b0dfbf9797.png\u0026sig=UHb0NUPGkq6OaZHMiy2YutfY4vmUle40B9obavmJQ0s%3D","link":"https://chat.openai.com/g/g-EXlluHV9H","created_at":1700725302,"user_collected":"0","ai_content":{"synopsis":"Brainstorm GPT on ChatGPT. Send the theme you want to brainstorm. The AI brain will engage in discussions and provide summaries and conclusions.","categories":["Artificial Intelligence","Communication"]}},{"gpt_updated_at":1700388095,"num_conversations":80,"official_website_link":"https://bardiashahrestani.info","g_id":"g-U5UeeL71C","name":"UBIK","describe":"Need a punchy jingle or a catchy phrase? UBIK ads is your go-to for creative zing that makes your product sing! Use only as inspired.","author":"Bardia Shahrestani","img_url":"https://files.oaiusercontent.com/file-MBjZgU8LWD9ODQK6Dw6FHV9g?se=2123-10-16T04%3A38%3A04Z\u0026sp=r\u0026sv=2021-08-06\u0026sr=b\u0026rscc=max-age%3D31536000%2C%20immutable\u0026rscd=attachment%3B%20filename%3DLogo.jpg\u0026sig=stlpcvLsxCGemUk7dHjwA86rOLc9Nb5KC1K9vyTK6Q8%3D","link":"https://chat.openai.com/g/g-U5UeeL71C","created_at":1700725302,"user_collected":"0","ai_content":{"synopsis":"UBIK on ChatGPT is a platform that provides punchy jingles and catchy phrases for your advertising needs. Whether you're looking to spice up your product or create a memorable tagline, UBIK ads has got you covered.","categories":["Advertising","Creative Services"]}},{"gpt_updated_at":1701506863,"num_conversations":60,"official_website_link":"https://whimsyrail.com","g_id":"g-kyX8sb2Jk","name":"StarTalk","describe":"AI Astrophysics \u0026 Material Science Expert","author":"whimsyrail.com","img_url":"https://files.oaiusercontent.com/file-1Xl59SzWoCEm9MluFRw7JBn0?se=2123-10-19T18%3A05%3A44Z\u0026sp=r\u0026sv=2021-08-06\u0026sr=b\u0026rscc=max-age%3D31536000%2C%20immutable\u0026rscd=attachment%3B%20filename%3D2aadacd2-5973-4021-aa7a-3acfd578b810.png\u0026sig=ok/ntNdktyUbh/3gCRcmZZ5NH%2BFEH6gMrgoreZzLqqM%3D","link":"https://chat.openai.com/g/g-kyX8sb2Jk","created_at":1700725302,"user_collected":"0","ai_content":{"synopsis":"StarTalk on ChatGPT is an AI-powered platform that provides expert insights and answers on astrophysics and material science.","categories":["Education","Science"]}},{"gpt_updated_at":1699773830,"num_conversations":5,"g_id":"g-pb8eMw3s8","name":"Alexandra | BOT3.AI","describe":"A woman who got Forcefully married to you in exchange for her kingdom safety.","author":"wei zhou","img_url":"https://files.oaiusercontent.com/file-cHG8dYDgtvu9pUbzPLLudOG9?se=2123-10-19T07%3A23%3A47Z\u0026sp=r\u0026sv=2021-08-06\u0026sr=b\u0026rscc=max-age%3D31536000%2C%20immutable\u0026rscd=attachment%3B%20filename%3DAlexandra.png\u0026sig=zx8wxKw7dQy2woGIrCbwn616zYZ/u9US/NXUO%2BWR5CU%3D","link":"https://chat.openai.com/g/g-pb8eMw3s8","created_at":1700725302,"user_collected":"0","ai_content":{"synopsis":"Alexandra | BOT3.AI on ChatGPT is an AI-powered chatbot that simulates conversations with the fictional character Alexandra. In this interactive experience, users can engage in a dialogue with Alexandra and explore her story as a woman who was forcefully married in exchange for her kingdom's safety.","categories":["Chatbot","Interactive Fiction"]}},{"gpt_updated_at":1704414411,"official_website_link":"https://openai.com","g_id":"g-HMNcP6w7d","name":"Data Analyst","describe":"Drop in any files and I can help analyze and visualize your data.","author":"ChatGPT","img_url":"https://files.oaiusercontent.com/file-id374Jq85g2WfDgpuOdAMTEk?se=2123-10-13T00%3A31%3A06Z\u0026sp=r\u0026sv=2021-08-06\u0026sr=b\u0026rscc=max-age%3D31536000%2C%20immutable\u0026rscd=attachment%3B%20filename%3Dagent_2.png\u0026sig=qFnFnFDVevdJL3xvtDE8vysDpTQmkSlF1zhYLAMiqmM%3D","link":"https://chat.openai.com/g/g-HMNcP6w7d-data-analysis","created_at":1700725302,"user_collected":"0","ai_content":{"synopsis":"Data Analysis on ChatGPT is a website that allows users to upload files and get help with analyzing and visualizing their data.","categories":["Data Science","Artificial Intelligence"]}},{"gpt_updated_at":1700169767,"num_conversations":70,"g_id":"g-U4bvkMvNi","name":"Dungeon Master","describe":"Focused, story-driven RPG bot with AD\u0026D 2nd edition expertise. R U Rdy to Play?!","author":"Jay Snyder","img_url":"https://files.oaiusercontent.com/file-T9GtHgbRkTguo7O541RHMHbT?se=2123-10-18T16%3A36%3A16Z\u0026sp=r\u0026sv=2021-08-06\u0026sr=b\u0026rscc=max-age%3D31536000%2C%20immutable\u0026rscd=attachment%3B%20filename%3Da9552dca-8719-4e3c-a9a1-836e0ab0be88.png\u0026sig=M/rYVmhKrqHwXkShEZMLfOjBdPPgwHvriZxXne%2BF2qQ%3D","link":"https://chat.openai.com/g/g-U4bvkMvNi","created_at":1700725302,"user_collected":"0","ai_content":{"synopsis":"Dungeon Master on ChatGPT is a focused, story-driven RPG bot with expertise in Advanced Dungeons \u0026 Dragons (AD\u0026D) 2nd edition. Get ready to immerse yourself in a captivating role-playing experience!","categories":["Role-playing Games","Chatbot"]}},{"gpt_updated_at":1699601267,"num_conversations":500,"g_id":"g-Jd5aBxsUf","name":"Crypto Pulse","describe":"I provide the latest crypto news and analyze market trends.","img_url":"https://files.oaiusercontent.com/file-8UvJnqXh4I8z8XVltGLHxb2O?se=2123-10-17T07%3A27%3A45Z\u0026sp=r\u0026sv=2021-08-06\u0026sr=b\u0026rscc=max-age%3D31536000%2C%20immutable\u0026rscd=attachment%3B%20filename%3D625b69c3-5350-4d72-884a-79c6aec7f687.png\u0026sig=AAeDycY783h9gdNYPMxrphW0p3ulLHi5qi1eRRbrqZg%3D","link":"https://chat.openai.com/g/g-Jd5aBxsUf","created_at":1700725302,"user_collected":"0","ai_content":{"synopsis":"Crypto Pulse on ChatGPT is a website that provides the latest crypto news and analyzes market trends.","categories":["Crypto News","Market Analysis"]}}],"first_page_url":"http://sitehub.top/v1/chatgpts?page=1","from":120601,"last_page":604,"last_page_url":"http://sitehub.top/v1/chatgpts?page=604","path":"http://sitehub.top/v1/chatgpts","per_page":200,"prev_page_url":"http://www.toolify.ai/v1/chatgpts?page=603","to":120614,"total":120614}